<?xml version="1.0" encoding="UTF-8" standalone="no"?>
<!-- Generator: Adobe Illustrator 19.0.0, SVG Export Plug-In . SVG Version: 6.00 Build 0)  -->

<svg
   xmlns:dc="http://purl.org/dc/elements/1.1/"
   xmlns:cc="http://creativecommons.org/ns#"
   xmlns:rdf="http://www.w3.org/1999/02/22-rdf-syntax-ns#"
   xmlns:svg="http://www.w3.org/2000/svg"
   xmlns="http://www.w3.org/2000/svg"
   xmlns:sodipodi="http://sodipodi.sourceforge.net/DTD/sodipodi-0.dtd"
   xmlns:inkscape="http://www.inkscape.org/namespaces/inkscape"
   version="1.1"
   id="Layer_1"
   x="0px"
   y="0px"
   viewBox="0 0 473.935 473.935"
   style="enable-background:new 0 0 473.935 473.935;"
   xml:space="preserve"
   sodipodi:docname="folder.svg"
   inkscape:version="0.92.4 (unknown)"><metadata
   id="metadata61"><rdf:RDF><cc:Work
       rdf:about=""><dc:format>image/svg+xml</dc:format><dc:type
         rdf:resource="http://purl.org/dc/dcmitype/StillImage" /><dc:title></dc:title></cc:Work></rdf:RDF></metadata><defs
   id="defs59" /><sodipodi:namedview
   pagecolor="#ffffff"
   bordercolor="#666666"
   borderopacity="1"
   objecttolerance="10"
   gridtolerance="10"
   guidetolerance="10"
   inkscape:pageopacity="0"
   inkscape:pageshadow="2"
   inkscape:window-width="640"
   inkscape:window-height="480"
   id="namedview57"
   showgrid="false"
   inkscape:zoom="0.35210989"
   inkscape:cx="-90.155667"
   inkscape:cy="189.33625"
   inkscape:window-x="0"
   inkscape:window-y="30"
   inkscape:window-maximized="0"
   inkscape:current-layer="Layer_1" />
<circle
   style="fill:#1652ba;fill-opacity:1"
   cx="236.967"
   cy="236.967"
   r="236.967"
   id="circle2" />
<g
   id="g8"
   style="fill:#ffd5d5">
	<path
   style="fill:#ffd5d5"
   d="M355.369,174.742c0,6.036-4.898,10.934-10.934,10.934h-68.314c-6.035,0-10.93-4.898-10.93-10.934   v-39.618c0-6.035,4.894-10.934,10.93-10.934h68.314c6.035,0,10.934,4.898,10.934,10.934V174.742z"
   id="path4" />
	<path
   style="fill:#ffd5d5"
   d="M386.68,301.996c0,19.644-15.921,35.562-35.562,35.562H128.863   c-19.644,0-35.562-15.921-35.562-35.562V173.091c0-19.641,15.918-35.562,35.562-35.562h222.251   c19.641,0,35.562,15.925,35.562,35.562v128.905H386.68z"
   id="path6" />
</g>
<rect
   x="292.575"
   y="129.446"
   transform="matrix(-0.7071 0.7071 -0.7071 -0.7071 634.8085 68.3069)"
   style="opacity:0.15;enable-background:new    ;"
   width="21.365"
   height="72.362"
   id="rect10" />
<g
   id="g16"
   style="fill:#ffe680">
	<path
   style="fill:#ffe680"
   d="M288.686,180.298c0,6.035-4.898,10.934-10.934,10.934h-68.314c-6.035,0-10.934-4.898-10.934-10.934   v-39.614c0-6.039,4.898-10.934,10.934-10.934h68.314c6.036,0,10.934,4.898,10.934,10.934V180.298z"
   id="path12" />
	<path
   style="fill:#ffe680"
   d="M386.68,309.771c0,19.641-15.921,35.562-35.562,35.562H128.863   c-19.644,0-35.562-15.921-35.562-35.562V180.867c0-19.644,15.918-35.562,35.562-35.562h222.251   c19.641,0,35.562,15.921,35.562,35.562v128.905H386.68z"
   id="path14" />
</g>
<rect
   x="223.929"
   y="135.844"
   transform="matrix(-0.7071 0.7071 -0.7071 -0.7071 522.1472 127.7685)"
   style="opacity:0.15;enable-background:new    ;"
   width="21.365"
   height="72.362"
   id="rect18" />
<g
   id="g24"
   style="fill:#ffffff">
	<path
   style="fill:#ffffff"
   d="M222.008,188.451c0,6.039-4.898,10.93-10.934,10.93h-68.318c-6.035,0-10.93-4.894-10.93-10.93   v-39.626c0-6.032,4.894-10.926,10.93-10.926h68.318c6.036,0,10.934,4.894,10.934,10.926V188.451z"
   id="path20" />
	<path
   style="fill:#ffffff"
   d="M386.68,354.228H93.298l0.004-164.47c0-19.641,15.918-35.562,35.562-35.562h222.251   c19.641,0,35.562,15.925,35.562,35.562v164.47H386.68z"
   id="path22" />
</g>
<g
   id="g26">
</g>
<g
   id="g28">
</g>
<g
   id="g30">
</g>
<g
   id="g32">
</g>
<g
   id="g34">
</g>
<g
   id="g36">
</g>
<g
   id="g38">
</g>
<g
   id="g40">
</g>
<g
   id="g42">
</g>
<g
   id="g44">
</g>
<g
   id="g46">
</g>
<g
   id="g48">
</g>
<g
   id="g50">
</g>
<g
   id="g52">
</g>
<g
   id="g54">
</g>
</svg>