<svg width="28" height="23" viewBox="0 0 28 23" fill="none" xmlns="http://www.w3.org/2000/svg">
<path d="M6.82904 0.207835C6.59949 -0.0692783 6.23126 -0.0692783 6.00171 0.207835L2.30504 4.64165L0.999488 3.05402C0.76994 2.77691 0.401708 2.77691 0.172161 3.05402C-0.0573869 3.33113 -0.0573869 3.77567 0.172161 4.05278L1.89377 6.14268C2.00854 6.28124 2.15679 6.35051 2.30982 6.35051C2.45807 6.35051 2.60632 6.28124 2.72109 6.14268L6.83382 1.2066C7.0538 0.929484 7.05858 0.484948 6.82904 0.207835Z" fill="#50E2A5"/>
<path d="M10.0001 3.5C10.0001 4.48023 10.0001 5.36554 10.0001 6.00053C10.0001 6.55279 10.4478 7 11.0001 7L27 6.99999C27.5523 6.99999 28 6.55275 28 6.00047C28 5.36548 28 4.48021 28 3.5C28 2.51979 28 1.63451 28 0.999522C28 0.447237 27.5523 0 27 0H11.0001C10.4477 0 10 0.44727 10 0.999576C10.0001 1.63456 10.0001 2.51981 10.0001 3.5Z" fill="#50E2A5"/>
<path d="M13.5001 14.0001L13.5 12.5L13.5 11C13.5 10.7239 13.7238 10.5 14 10.5H27C27.2762 10.5 27.5 10.7238 27.5 10.9999V11.0024V11.0048V11.0073V11.0097V11.0122V11.0147V11.0171V11.0196V11.0221V11.0245V11.027V11.0295V11.0319V11.0344V11.0369V11.0394V11.0419V11.0444V11.0468V11.0493V11.0518V11.0543V11.0568V11.0593V11.0618V11.0643V11.0668V11.0694V11.0719V11.0744V11.0769V11.0794V11.0819V11.0845V11.087V11.0895V11.0921V11.0946V11.0971V11.0997V11.1022V11.1047V11.1073V11.1098V11.1124V11.1149V11.1175V11.12V11.1226V11.1251V11.1277V11.1303V11.1328V11.1354V11.138V11.1406V11.1431V11.1457V11.1483V11.1509V11.1534V11.156V11.1586V11.1612V11.1638V11.1664V11.169V11.1716V11.1742V11.1768V11.1794V11.182V11.1846V11.1872V11.1898V11.1925V11.1951V11.1977V11.2003V11.2029V11.2056V11.2082V11.2108V11.2135V11.2161V11.2187V11.2214V11.224V11.2266V11.2293V11.2319V11.2346V11.2372V11.2399V11.2425V11.2452V11.2479V11.2505V11.2532V11.2559V11.2585V11.2612V11.2639V11.2665V11.2692V11.2719V11.2746V11.2773V11.2799V11.2826V11.2853V11.288V11.2907V11.2934V11.2961V11.2988V11.3015V11.3042V11.3069V11.3096V11.3123V11.315V11.3177V11.3205V11.3232V11.3259V11.3286V11.3313V11.3341V11.3368V11.3395V11.3422V11.345V11.3477V11.3504V11.3532V11.3559V11.3587V11.3614V11.3642V11.3669V11.3697V11.3724V11.3752V11.3779V11.3807V11.3834V11.3862V11.389V11.3917V11.3945V11.3973V11.4V11.4028V11.4056V11.4084V11.4111V11.4139V11.4167V11.4195V11.4223V11.4251V11.4279V11.4307V11.4335V11.4362V11.439V11.4418V11.4447V11.4475V11.4503V11.4531V11.4559V11.4587V11.4615V11.4643V11.4671V11.47V11.4728V11.4756V11.4784V11.4813V11.4841V11.4869V11.4897V11.4926V11.4954V11.4983V11.5011V11.5039V11.5068V11.5096V11.5125V11.5153V11.5182V11.521V11.5239V11.5267V11.5296V11.5325V11.5353V11.5382V11.541V11.5439V11.5468V11.5496V11.5525V11.5554V11.5583V11.5611V11.564V11.5669V11.5698V11.5727V11.5756V11.5785V11.5813V11.5842V11.5871V11.59V11.5929V11.5958V11.5987V11.6016V11.6045V11.6074V11.6103V11.6133V11.6162V11.6191V11.622V11.6249V11.6278V11.6307V11.6337V11.6366V11.6395V11.6424V11.6454V11.6483V11.6512V11.6542V11.6571V11.66V11.663V11.6659V11.6689V11.6718V11.6747V11.6777V11.6806V11.6836V11.6865V11.6895V11.6925V11.6954V11.6984V11.7013V11.7043V11.7073V11.7102V11.7132V11.7162V11.7191V11.7221V11.7251V11.7281V11.731V11.734V11.737V11.74V11.743V11.7459V11.7489V11.7519V11.7549V11.7579V11.7609V11.7639V11.7669V11.7699V11.7729V11.7759V11.7789V11.7819V11.7849V11.7879V11.7909V11.7939V11.7969V11.7999V11.803V11.806V11.809V11.812V11.815V11.8181V11.8211V11.8241V11.8271V11.8302V11.8332V11.8362V11.8393V11.8423V11.8453V11.8484V11.8514V11.8545V11.8575V11.8606V11.8636V11.8666V11.8697V11.8727V11.8758V11.8789V11.8819V11.885V11.888V11.8911V11.8941V11.8972V11.9003V11.9033V11.9064V11.9095V11.9125V11.9156V11.9187V11.9218V11.9248V11.9279V11.931V11.9341V11.9372V11.9402V11.9433V11.9464V11.9495V11.9526V11.9557V11.9588V11.9619V11.965V11.9681V11.9712V11.9743V11.9774V11.9805V11.9836V11.9867V11.9898V11.9929V11.996V11.9991V12.0022V12.0053V12.0084V12.0116V12.0147V12.0178V12.0209V12.024V12.0272V12.0303V12.0334V12.0365V12.0397V12.0428V12.0459V12.0491V12.0522V12.0553V12.0585V12.0616V12.0648V12.0679V12.071V12.0742V12.0773V12.0805V12.0836V12.0868V12.0899V12.0931V12.0962V12.0994V12.1025V12.1057V12.1089V12.112V12.1152V12.1183V12.1215V12.1247V12.1278V12.131V12.1342V12.1373V12.1405V12.1437V12.1469V12.15V12.1532V12.1564V12.1596V12.1628V12.1659V12.1691V12.1723V12.1755V12.1787V12.1819V12.1851V12.1882V12.1914V12.1946V12.1978V12.201V12.2042V12.2074V12.2106V12.2138V12.217V12.2202V12.2234V12.2266V12.2298V12.233V12.2363V12.2395V12.2427V12.2459V12.2491V12.2523V12.2555V12.2587V12.262V12.2652V12.2684V12.2716V12.2749V12.2781V12.2813V12.2845V12.2878V12.291V12.2942V12.2975V12.3007V12.3039V12.3072V12.3104V12.3136V12.3169V12.3201V12.3233V12.3266V12.3298V12.3331V12.3363V12.3396V12.3428V12.3461V12.3493V12.3526V12.3558V12.3591V12.3623V12.3656V12.3688V12.3721V12.3754V12.3786V12.3819V12.3851V12.3884V12.3917V12.3949V12.3982V12.4015V12.4047V12.408V12.4113V12.4146V12.4178V12.4211V12.4244V12.4277V12.4309V12.4342V12.4375V12.4408V12.4441V12.4473V12.4506V12.4539V12.4572V12.4605V12.4638V12.4671V12.4703V12.4736V12.4769V12.4802V12.4835V12.4868V12.4901V12.4934V12.4967V12.5V12.5033V12.5066V12.5099V12.5132V12.5165V12.5198V12.5231V12.5264V12.5297V12.5329V12.5362V12.5395V12.5428V12.5461V12.5494V12.5527V12.5559V12.5592V12.5625V12.5658V12.5691V12.5723V12.5756V12.5789V12.5822V12.5854V12.5887V12.592V12.5953V12.5985V12.6018V12.6051V12.6083V12.6116V12.6149V12.6181V12.6214V12.6246V12.6279V12.6312V12.6344V12.6377V12.6409V12.6442V12.6474V12.6507V12.6539V12.6572V12.6604V12.6637V12.6669V12.6702V12.6734V12.6766V12.6799V12.6831V12.6864V12.6896V12.6928V12.6961V12.6993V12.7025V12.7058V12.709V12.7122V12.7155V12.7187V12.7219V12.7251V12.7284V12.7316V12.7348V12.738V12.7412V12.7445V12.7477V12.7509V12.7541V12.7573V12.7605V12.7637V12.767V12.7702V12.7734V12.7766V12.7798V12.783V12.7862V12.7894V12.7926V12.7958V12.799V12.8022V12.8054V12.8086V12.8118V12.8149V12.8181V12.8213V12.8245V12.8277V12.8309V12.8341V12.8372V12.8404V12.8436V12.8468V12.85V12.8531V12.8563V12.8595V12.8627V12.8658V12.869V12.8722V12.8753V12.8785V12.8817V12.8848V12.888V12.8911V12.8943V12.8975V12.9006V12.9038V12.9069V12.9101V12.9132V12.9164V12.9195V12.9227V12.9258V12.929V12.9321V12.9352V12.9384V12.9415V12.9447V12.9478V12.9509V12.9541V12.9572V12.9603V12.9634V12.9666V12.9697V12.9728V12.9759V12.9791V12.9822V12.9853V12.9884V12.9915V12.9947V12.9978V13.0009V13.004V13.0071V13.0102V13.0133V13.0164V13.0195V13.0226V13.0257V13.0288V13.0319V13.035V13.0381V13.0412V13.0443V13.0474V13.0505V13.0536V13.0567V13.0597V13.0628V13.0659V13.069V13.0721V13.0752V13.0782V13.0813V13.0844V13.0874V13.0905V13.0936V13.0967V13.0997V13.1028V13.1058V13.1089V13.112V13.115V13.1181V13.1211V13.1242V13.1272V13.1303V13.1333V13.1364V13.1394V13.1425V13.1455V13.1486V13.1516V13.1547V13.1577V13.1607V13.1638V13.1668V13.1698V13.1729V13.1759V13.1789V13.1819V13.185V13.188V13.191V13.194V13.197V13.2V13.2031V13.2061V13.2091V13.2121V13.2151V13.2181V13.2211V13.2241V13.2271V13.2301V13.2331V13.2361V13.2391V13.2421V13.2451V13.2481V13.2511V13.2541V13.257V13.26V13.263V13.266V13.269V13.2719V13.2749V13.2779V13.2809V13.2838V13.2868V13.2898V13.2927V13.2957V13.2987V13.3016V13.3046V13.3075V13.3105V13.3134V13.3164V13.3193V13.3223V13.3252V13.3282V13.3311V13.3341V13.337V13.34V13.3429V13.3458V13.3488V13.3517V13.3546V13.3576V13.3605V13.3634V13.3663V13.3692V13.3722V13.3751V13.378V13.3809V13.3838V13.3867V13.3897V13.3926V13.3955V13.3984V13.4013V13.4042V13.4071V13.41V13.4129V13.4158V13.4187V13.4215V13.4244V13.4273V13.4302V13.4331V13.436V13.4388V13.4417V13.4446V13.4475V13.4503V13.4532V13.4561V13.459V13.4618V13.4647V13.4675V13.4704V13.4733V13.4761V13.479V13.4818V13.4847V13.4875V13.4904V13.4932V13.4961V13.4989V13.5017V13.5046V13.5074V13.5102V13.5131V13.5159V13.5187V13.5216V13.5244V13.5272V13.53V13.5329V13.5357V13.5385V13.5413V13.5441V13.5469V13.5497V13.5525V13.5553V13.5581V13.5609V13.5637V13.5665V13.5693V13.5721V13.5749V13.5777V13.5805V13.5833V13.5861V13.5888V13.5916V13.5944V13.5972V13.6V13.6027V13.6055V13.6083V13.611V13.6138V13.6166V13.6193V13.6221V13.6248V13.6276V13.6303V13.6331V13.6358V13.6386V13.6413V13.6441V13.6468V13.6495V13.6523V13.655V13.6578V13.6605V13.6632V13.6659V13.6687V13.6714V13.6741V13.6768V13.6795V13.6823V13.685V13.6877V13.6904V13.6931V13.6958V13.6985V13.7012V13.7039V13.7066V13.7093V13.712V13.7147V13.7174V13.7201V13.7227V13.7254V13.7281V13.7308V13.7335V13.7361V13.7388V13.7415V13.7441V13.7468V13.7495V13.7521V13.7548V13.7574V13.7601V13.7628V13.7654V13.7681V13.7707V13.7733V13.776V13.7786V13.7813V13.7839V13.7865V13.7892V13.7918V13.7944V13.7971V13.7997V13.8023V13.8049V13.8075V13.8102V13.8128V13.8154V13.818V13.8206V13.8232V13.8258V13.8284V13.831V13.8336V13.8362V13.8388V13.8414V13.844V13.8465V13.8491V13.8517V13.8543V13.8569V13.8594V13.862V13.8646V13.8672V13.8697V13.8723V13.8748V13.8774V13.88V13.8825V13.8851V13.8876V13.8902V13.8927V13.8953V13.8978V13.9003V13.9029V13.9054V13.9079V13.9105V13.913V13.9155V13.9181V13.9206V13.9231V13.9256V13.9281V13.9306V13.9331V13.9357V13.9382V13.9407V13.9432V13.9457V13.9482V13.9507V13.9531V13.9556V13.9581V13.9606V13.9631V13.9656V13.9681V13.9705V13.973V13.9755V13.9779V13.9804V13.9829V13.9853V13.9878V13.9903V13.9927V13.9952V13.9976V14.0001C27.5 14.2762 27.2762 14.5 27 14.5L14 14.5C13.7239 14.5 13.5001 14.2762 13.5001 14.0001Z" stroke="#50E2A5"/>
<path d="M13.5001 22.0001L13.5001 20.5L13.5 19C13.5 18.7239 13.7239 18.5 14.0001 18.5H27C27.2762 18.5 27.5 18.7238 27.5 18.9999V19.0024V19.0048V19.0073V19.0097V19.0122V19.0147V19.0171V19.0196V19.0221V19.0245V19.027V19.0295V19.0319V19.0344V19.0369V19.0394V19.0419V19.0444V19.0468V19.0493V19.0518V19.0543V19.0568V19.0593V19.0618V19.0643V19.0668V19.0694V19.0719V19.0744V19.0769V19.0794V19.0819V19.0845V19.087V19.0895V19.0921V19.0946V19.0971V19.0997V19.1022V19.1047V19.1073V19.1098V19.1124V19.1149V19.1175V19.12V19.1226V19.1251V19.1277V19.1303V19.1328V19.1354V19.138V19.1405V19.1431V19.1457V19.1483V19.1509V19.1534V19.156V19.1586V19.1612V19.1638V19.1664V19.169V19.1716V19.1742V19.1768V19.1794V19.182V19.1846V19.1872V19.1898V19.1925V19.1951V19.1977V19.2003V19.2029V19.2056V19.2082V19.2108V19.2135V19.2161V19.2187V19.2214V19.224V19.2266V19.2293V19.2319V19.2346V19.2372V19.2399V19.2425V19.2452V19.2479V19.2505V19.2532V19.2559V19.2585V19.2612V19.2639V19.2665V19.2692V19.2719V19.2746V19.2773V19.2799V19.2826V19.2853V19.288V19.2907V19.2934V19.2961V19.2988V19.3015V19.3042V19.3069V19.3096V19.3123V19.315V19.3177V19.3205V19.3232V19.3259V19.3286V19.3313V19.3341V19.3368V19.3395V19.3422V19.345V19.3477V19.3504V19.3532V19.3559V19.3587V19.3614V19.3642V19.3669V19.3697V19.3724V19.3752V19.3779V19.3807V19.3834V19.3862V19.389V19.3917V19.3945V19.3973V19.4V19.4028V19.4056V19.4084V19.4111V19.4139V19.4167V19.4195V19.4223V19.4251V19.4279V19.4307V19.4335V19.4362V19.439V19.4418V19.4447V19.4475V19.4503V19.4531V19.4559V19.4587V19.4615V19.4643V19.4671V19.47V19.4728V19.4756V19.4784V19.4813V19.4841V19.4869V19.4897V19.4926V19.4954V19.4983V19.5011V19.5039V19.5068V19.5096V19.5125V19.5153V19.5182V19.521V19.5239V19.5267V19.5296V19.5325V19.5353V19.5382V19.541V19.5439V19.5468V19.5496V19.5525V19.5554V19.5583V19.5611V19.564V19.5669V19.5698V19.5727V19.5756V19.5785V19.5813V19.5842V19.5871V19.59V19.5929V19.5958V19.5987V19.6016V19.6045V19.6074V19.6103V19.6133V19.6162V19.6191V19.622V19.6249V19.6278V19.6307V19.6337V19.6366V19.6395V19.6424V19.6454V19.6483V19.6512V19.6542V19.6571V19.66V19.663V19.6659V19.6689V19.6718V19.6747V19.6777V19.6806V19.6836V19.6865V19.6895V19.6925V19.6954V19.6984V19.7013V19.7043V19.7073V19.7102V19.7132V19.7162V19.7191V19.7221V19.7251V19.7281V19.731V19.734V19.737V19.74V19.743V19.7459V19.7489V19.7519V19.7549V19.7579V19.7609V19.7639V19.7669V19.7699V19.7729V19.7759V19.7789V19.7819V19.7849V19.7879V19.7909V19.7939V19.7969V19.7999V19.803V19.806V19.809V19.812V19.815V19.8181V19.8211V19.8241V19.8271V19.8302V19.8332V19.8362V19.8393V19.8423V19.8453V19.8484V19.8514V19.8545V19.8575V19.8606V19.8636V19.8666V19.8697V19.8727V19.8758V19.8789V19.8819V19.885V19.888V19.8911V19.8941V19.8972V19.9003V19.9033V19.9064V19.9095V19.9125V19.9156V19.9187V19.9218V19.9248V19.9279V19.931V19.9341V19.9372V19.9402V19.9433V19.9464V19.9495V19.9526V19.9557V19.9588V19.9619V19.965V19.9681V19.9712V19.9743V19.9774V19.9805V19.9836V19.9867V19.9898V19.9929V19.996V19.9991V20.0022V20.0053V20.0084V20.0116V20.0147V20.0178V20.0209V20.024V20.0272V20.0303V20.0334V20.0365V20.0397V20.0428V20.0459V20.0491V20.0522V20.0553V20.0585V20.0616V20.0648V20.0679V20.071V20.0742V20.0773V20.0805V20.0836V20.0868V20.0899V20.0931V20.0962V20.0994V20.1025V20.1057V20.1089V20.112V20.1152V20.1183V20.1215V20.1247V20.1278V20.131V20.1342V20.1373V20.1405V20.1437V20.1469V20.15V20.1532V20.1564V20.1596V20.1628V20.1659V20.1691V20.1723V20.1755V20.1787V20.1819V20.1851V20.1882V20.1914V20.1946V20.1978V20.201V20.2042V20.2074V20.2106V20.2138V20.217V20.2202V20.2234V20.2266V20.2298V20.233V20.2363V20.2395V20.2427V20.2459V20.2491V20.2523V20.2555V20.2587V20.262V20.2652V20.2684V20.2716V20.2749V20.2781V20.2813V20.2845V20.2878V20.291V20.2942V20.2975V20.3007V20.3039V20.3072V20.3104V20.3136V20.3169V20.3201V20.3233V20.3266V20.3298V20.3331V20.3363V20.3396V20.3428V20.3461V20.3493V20.3526V20.3558V20.3591V20.3623V20.3656V20.3688V20.3721V20.3754V20.3786V20.3819V20.3851V20.3884V20.3917V20.3949V20.3982V20.4015V20.4047V20.408V20.4113V20.4146V20.4178V20.4211V20.4244V20.4277V20.4309V20.4342V20.4375V20.4408V20.4441V20.4473V20.4506V20.4539V20.4572V20.4605V20.4638V20.4671V20.4703V20.4736V20.4769V20.4802V20.4835V20.4868V20.4901V20.4934V20.4967V20.5V20.5033V20.5066V20.5099V20.5132V20.5165V20.5198V20.5231V20.5264V20.5297V20.5329V20.5362V20.5395V20.5428V20.5461V20.5494V20.5527V20.5559V20.5592V20.5625V20.5658V20.5691V20.5723V20.5756V20.5789V20.5822V20.5854V20.5887V20.592V20.5953V20.5985V20.6018V20.6051V20.6083V20.6116V20.6148V20.6181V20.6214V20.6246V20.6279V20.6312V20.6344V20.6377V20.6409V20.6442V20.6474V20.6507V20.6539V20.6572V20.6604V20.6637V20.6669V20.6702V20.6734V20.6766V20.6799V20.6831V20.6864V20.6896V20.6928V20.6961V20.6993V20.7025V20.7058V20.709V20.7122V20.7155V20.7187V20.7219V20.7251V20.7284V20.7316V20.7348V20.738V20.7412V20.7445V20.7477V20.7509V20.7541V20.7573V20.7605V20.7637V20.767V20.7702V20.7734V20.7766V20.7798V20.783V20.7862V20.7894V20.7926V20.7958V20.799V20.8022V20.8054V20.8086V20.8118V20.8149V20.8181V20.8213V20.8245V20.8277V20.8309V20.8341V20.8372V20.8404V20.8436V20.8468V20.85V20.8531V20.8563V20.8595V20.8627V20.8658V20.869V20.8722V20.8753V20.8785V20.8817V20.8848V20.888V20.8911V20.8943V20.8975V20.9006V20.9038V20.9069V20.9101V20.9132V20.9164V20.9195V20.9227V20.9258V20.929V20.9321V20.9352V20.9384V20.9415V20.9447V20.9478V20.9509V20.9541V20.9572V20.9603V20.9634V20.9666V20.9697V20.9728V20.9759V20.9791V20.9822V20.9853V20.9884V20.9915V20.9947V20.9978V21.0009V21.004V21.0071V21.0102V21.0133V21.0164V21.0195V21.0226V21.0257V21.0288V21.0319V21.035V21.0381V21.0412V21.0443V21.0474V21.0505V21.0536V21.0567V21.0597V21.0628V21.0659V21.069V21.0721V21.0752V21.0782V21.0813V21.0844V21.0874V21.0905V21.0936V21.0967V21.0997V21.1028V21.1058V21.1089V21.112V21.115V21.1181V21.1211V21.1242V21.1272V21.1303V21.1333V21.1364V21.1394V21.1425V21.1455V21.1486V21.1516V21.1547V21.1577V21.1607V21.1638V21.1668V21.1698V21.1729V21.1759V21.1789V21.1819V21.185V21.188V21.191V21.194V21.197V21.2V21.2031V21.2061V21.2091V21.2121V21.2151V21.2181V21.2211V21.2241V21.2271V21.2301V21.2331V21.2361V21.2391V21.2421V21.2451V21.2481V21.2511V21.2541V21.257V21.26V21.263V21.266V21.269V21.2719V21.2749V21.2779V21.2809V21.2838V21.2868V21.2898V21.2927V21.2957V21.2987V21.3016V21.3046V21.3075V21.3105V21.3134V21.3164V21.3193V21.3223V21.3252V21.3282V21.3311V21.3341V21.337V21.34V21.3429V21.3458V21.3488V21.3517V21.3546V21.3576V21.3605V21.3634V21.3663V21.3692V21.3722V21.3751V21.378V21.3809V21.3838V21.3867V21.3897V21.3926V21.3955V21.3984V21.4013V21.4042V21.4071V21.41V21.4129V21.4158V21.4187V21.4215V21.4244V21.4273V21.4302V21.4331V21.436V21.4388V21.4417V21.4446V21.4475V21.4503V21.4532V21.4561V21.459V21.4618V21.4647V21.4675V21.4704V21.4733V21.4761V21.479V21.4818V21.4847V21.4875V21.4904V21.4932V21.4961V21.4989V21.5017V21.5046V21.5074V21.5102V21.5131V21.5159V21.5187V21.5216V21.5244V21.5272V21.53V21.5329V21.5357V21.5385V21.5413V21.5441V21.5469V21.5497V21.5525V21.5553V21.5581V21.5609V21.5637V21.5665V21.5693V21.5721V21.5749V21.5777V21.5805V21.5833V21.5861V21.5888V21.5916V21.5944V21.5972V21.6V21.6027V21.6055V21.6083V21.611V21.6138V21.6166V21.6193V21.6221V21.6248V21.6276V21.6303V21.6331V21.6358V21.6386V21.6413V21.6441V21.6468V21.6495V21.6523V21.655V21.6578V21.6605V21.6632V21.6659V21.6687V21.6714V21.6741V21.6768V21.6795V21.6823V21.685V21.6877V21.6904V21.6931V21.6958V21.6985V21.7012V21.7039V21.7066V21.7093V21.712V21.7147V21.7174V21.7201V21.7227V21.7254V21.7281V21.7308V21.7335V21.7361V21.7388V21.7415V21.7441V21.7468V21.7495V21.7521V21.7548V21.7574V21.7601V21.7628V21.7654V21.7681V21.7707V21.7733V21.776V21.7786V21.7813V21.7839V21.7865V21.7892V21.7918V21.7944V21.7971V21.7997V21.8023V21.8049V21.8075V21.8102V21.8128V21.8154V21.818V21.8206V21.8232V21.8258V21.8284V21.831V21.8336V21.8362V21.8388V21.8414V21.844V21.8465V21.8491V21.8517V21.8543V21.8569V21.8594V21.862V21.8646V21.8672V21.8697V21.8723V21.8748V21.8774V21.88V21.8825V21.8851V21.8876V21.8902V21.8927V21.8953V21.8978V21.9003V21.9029V21.9054V21.9079V21.9105V21.913V21.9155V21.9181V21.9206V21.9231V21.9256V21.9281V21.9306V21.9331V21.9357V21.9382V21.9407V21.9432V21.9457V21.9482V21.9507V21.9531V21.9556V21.9581V21.9606V21.9631V21.9656V21.9681V21.9705V21.973V21.9755V21.9779V21.9804V21.9829V21.9853V21.9878V21.9903V21.9927V21.9952V21.9976V22.0001C27.5 22.2762 27.2762 22.5 27 22.5L14.0001 22.5C13.7239 22.5 13.5001 22.2762 13.5001 22.0001Z" stroke="#50E2A5"/>
</svg>
