<svg width="28" height="28" viewBox="0 0 28 28" fill="none" xmlns="http://www.w3.org/2000/svg">
<path d="M27.7591 12.7764L23.5945 8.90924V2.5738H18.7971V4.45486L13.9997 0L0.240776 12.7764C0.0469617 12.9568 0.0354479 13.2605 0.21583 13.4548C0.395732 13.6486 0.699408 13.6596 0.894182 13.4797L2.48644 12.0012V28H10.1623H17.8381H25.5139V12.0007L27.1062 13.4792C27.1983 13.5651 27.3158 13.6073 27.4329 13.6073C27.5619 13.6073 27.69 13.556 27.7841 13.4543C27.9644 13.2605 27.9529 12.9568 27.7591 12.7764ZM19.7566 3.53328H22.635V8.01837L19.7566 5.34574V3.53328ZM11.1213 27.0405V16.9358C11.1213 16.6877 11.3228 16.4862 11.5708 16.4862H16.4286C16.6767 16.4862 16.8781 16.6877 16.8781 16.9358V27.0405H11.1213ZM24.554 27.0405H17.8376V16.9358C17.8376 16.1586 17.2058 15.5268 16.4286 15.5268H11.5708C10.7936 15.5268 10.1618 16.1586 10.1618 16.9358V27.0405H3.44544V11.1098L13.9997 1.30921L20.8504 7.67056L23.5945 10.2185L24.554 11.1093V27.0405Z" fill="#F8F8F8"/>
</svg>
