<svg width="108" height="108" viewBox="0 0 108 108" fill="none" xmlns="http://www.w3.org/2000/svg">
<path d="M98.6806 91.0935L90.9495 78.2145C87.3855 72.2701 85.4999 65.4661 85.4999 58.5315V47.2499C85.4999 29.8845 71.3654 15.75 54 15.75C36.6346 15.75 22.5001 29.8845 22.5001 47.2499V58.5315C22.5001 65.4661 20.6145 72.2701 17.0505 78.2145L9.31944 91.0935C8.90094 91.7864 8.89187 92.6551 9.28801 93.3571C9.68858 94.0635 10.4399 94.5001 11.2499 94.5001H96.7499C97.5599 94.5001 98.3114 94.0637 98.7118 93.3571C99.1079 92.6549 99.0991 91.7864 98.6806 91.0935ZM15.2236 90L20.9071 80.5274C24.894 73.8854 27 66.2805 27 58.5315V47.2499C27 32.3594 39.1095 20.2499 54 20.2499C68.8905 20.2499 81 32.3594 81 47.2499V58.5315C81 66.2805 83.106 73.8854 87.0885 80.5274L92.7764 90H15.2236Z" fill="#27C1B6"/>
<path d="M54.0001 0C49.0365 0 45 4.0365 45 9.00007V18.0001C45 19.2419 46.0081 20.25 47.2501 20.25C48.4921 20.25 49.5002 19.2419 49.5002 17.9999V9.00007C49.5002 6.51607 51.5161 4.50014 54.0001 4.50014C56.4841 4.50014 58.5 6.51607 58.5 9.00007V18.0001C58.5 19.2419 59.5081 20.25 60.7501 20.25C61.9921 20.25 63.0002 19.2419 63.0002 17.9999V9.00007C63.0002 4.0365 58.9637 0 54.0001 0Z" fill="#27C1B6"/>
<path d="M63.738 91.1117C63.1035 90.0408 61.7309 89.6898 60.6556 90.3061C59.58 90.9362 59.2202 92.3176 59.85 93.3886C60.435 94.3832 60.7545 95.5756 60.7545 96.7501C60.7545 100.472 57.7261 103.5 54.0045 103.5C50.283 103.5 47.2546 100.472 47.2546 96.7501C47.2546 95.5756 47.5741 94.3832 48.1591 93.3886C48.7845 92.313 48.4246 90.936 47.3535 90.3061C46.2691 89.6896 44.9009 90.0406 44.2711 91.1117C43.2765 92.8127 42.75 94.7611 42.75 96.7503C42.7502 102.956 47.7946 108 54.0001 108C60.2057 108 65.25 102.956 65.2591 96.7503C65.2591 94.7611 64.7326 92.8127 63.738 91.1117Z" fill="#27C1B6"/>
</svg>
