<svg width="35" height="35" viewBox="0 0 35 35" fill="none" xmlns="http://www.w3.org/2000/svg">
<path d="M35 17.5C35 7.85073 27.1493 0 17.5 0C7.85073 0 0 7.85073 0 17.5C0 27.1493 7.85073 35 17.5 35C27.1493 35 35 27.1493 35 17.5ZM1 17.5C1 8.81423 8.81423 1 17.5 1C26.1858 1 34 8.81423 34 17.5C34 26.1858 26.1858 34 17.5 34C8.81423 34 1 26.1858 1 17.5Z" fill="#919191"/>
<g clip-path="url(#clip0)">
<path d="M15.375 16.4485C13.4221 16.4485 11.8333 14.8598 11.8333 12.9069C11.8333 10.954 13.4221 9.36517 15.375 9.36517C17.3279 9.36517 18.9167 10.954 18.9167 12.9069C18.9167 14.8598 17.3279 16.4485 15.375 16.4485ZM15.375 10.4277C14.008 10.4277 12.8958 11.5397 12.8958 12.9069C12.8958 14.2739 14.008 15.386 15.375 15.386C16.742 15.386 17.8542 14.2739 17.8542 12.9069C17.8542 11.5397 16.742 10.4277 15.375 10.4277Z" fill="#27C1B6"/>
<path d="M24.7604 25.6568H20.8645C20.181 25.6568 19.6249 25.1008 19.6249 24.4172V21.9381C19.6249 21.2544 20.181 20.6984 20.8645 20.6984H24.7604C25.4439 20.6984 25.9999 21.2544 25.9999 21.9381V24.4172C25.9999 25.1008 25.4439 25.6568 24.7604 25.6568ZM20.8645 21.7609C20.7668 21.7609 20.6874 21.8403 20.6874 21.9381V24.4172C20.6874 24.515 20.7668 24.5943 20.8645 24.5943H24.7604C24.8581 24.5943 24.9374 24.515 24.9374 24.4172V21.9381C24.9374 21.8403 24.8581 21.7609 24.7604 21.7609H20.8645Z" fill="#27C1B6"/>
<path d="M24.0521 21.761H21.5731C21.2798 21.761 21.0418 21.523 21.0418 21.2297V19.636C21.0418 18.66 21.8365 17.8652 22.8126 17.8652C23.7887 17.8652 24.5834 18.66 24.5834 19.636V21.2297C24.5834 21.523 24.3454 21.761 24.0521 21.761ZM22.1043 20.6985H23.5209V19.636C23.5209 19.2457 23.2029 18.9277 22.8126 18.9277C22.4223 18.9277 22.1043 19.2457 22.1043 19.636V20.6985Z" fill="#27C1B6"/>
<path d="M17.8541 24.2402H9.53119C9.23794 24.2402 8.99994 24.0022 8.99994 23.7089V21.2297C8.99994 19.3746 10.5094 17.8652 12.3645 17.8652H18.5624C19.1546 17.8652 19.7375 18.0217 20.2476 18.3185C20.5012 18.4658 20.5868 18.791 20.4396 19.0445C20.2922 19.2989 19.9671 19.3838 19.7127 19.2365C19.365 19.0347 18.9668 18.9277 18.5624 18.9277H12.3645C11.0952 18.9277 10.0624 19.9605 10.0624 21.2297V23.1777H17.8541C18.1474 23.1777 18.3854 23.4157 18.3854 23.7089C18.3854 24.0022 18.1474 24.2402 17.8541 24.2402Z" fill="#27C1B6"/>
</g>
<defs>
<clipPath id="clip0">
<rect width="17" height="17" fill="white" transform="translate(8.99994 8.99994)"/>
</clipPath>
</defs>
</svg>
